Tutorial · IdentityByDescentDispersal.jl
…
using Turing, StatsBase, StatsPlots
@model function constant_density(df, contig_lengths)
    D ~ Uniform(0, 100)
    σ ~ Uniform(0, 20)
    Turing.@addlogprob! composite_loglikelihood_constant_density(D, σ, df, contig_lengths)
end

constant_density (generic function with 2 methods)
Generate a MLE estimate.

mle_estimate = maximum_likelihood(constant_density(df, contig_lengths))
DataFrame(coeftable(mle_estimate)) # computed from the Fisher information matrix
2×7 DataFrame

RowNameCoef.Std. ErrorzPr(>|z|)Lower 95%Upper 95%
StringFloat64Float64Float64Float64Float64Float64
1D0.03138930.1797950.1745830.861407-0.3210030.383781
2σ20.058.18030.3437590.731027-94.0312134.031

Bayesian inference
Alternatively, we can do a standard Bayesian inference with any of the available inference algorithms such as NUTS. Here, we fit a power-density model using NUTS:

@model function power_density(df, contig_lengths)
    D ~ Truncated(Normal(100, 20), 0, Inf)
    σ ~ Truncated(Normal(1, 0.1), 0, Inf)
    β ~ Normal(0, 0.5)
    Turing.@addlogprob! composite_loglikelihood_power_density(D, β, σ, df, contig_lengths)
end
m = power_density(df, contig_lengths)

DynamicPPL.Model{typeof(Main.power_density), (:df, :contig_lengths), (), (), Tuple{DataFrames.DataFrame, Vector{Float64}}, Tuple{}, DynamicPPL.DefaultContext}(Main.power_density, (df = 320×8 DataFrame
 Row │ DISTANCE  IBD_LEFT  IBD_RIGHT  IBD_MID  NR_PAIRS  COUNT  DISTANCE_INDEX ⋯
     │ Float64   Float64   Float64    Float64  Int64     Int64  Int64          ⋯
─────┼──────────────────────────────────────────────────────────────────────────
   1 │     10.0     0.04       0.041   0.0405         2      0               1 ⋯
   2 │     10.0     0.041      0.042   0.0415         2      0               1
   3 │     10.0     0.042      0.043   0.0425         2      0               1
   4 │     10.0     0.043      0.044   0.0435         2      0               1
   5 │     10.0     0.044      0.045   0.0445         2      0               1 ⋯
   6 │     10.0     0.045      0.046   0.0455         2      0               1
   7 │     10.0     0.046      0.047   0.0465         2      0               1
   8 │     10.0     0.047      0.048   0.0475         2      0               1
  ⋮  │    ⋮         ⋮          ⋮         ⋮        ⋮        ⋮          ⋮        ⋱
 314 │     20.0     0.193      0.194   0.1935         1      0               2 ⋯
 315 │     20.0     0.194      0.195   0.1945         1      0               2
 316 │     20.0     0.195      0.196   0.1955         1      0               2
 317 │     20.0     0.196      0.197   0.1965         1      0               2
 318 │     20.0     0.197      0.198   0.1975         1      0               2 ⋯
 319 │     20.0     0.198      0.199   0.1985         1      0               2
 320 │     20.0     0.199      0.2     0.1995         1      0               2
                                                   1 column and 305 rows omitted, contig_lengths = [1.0, 1.5]), NamedTuple(), DynamicPPL.DefaultContext())
…
